{
	"$schema": "https://schemas.wp.org/trunk/block.json",
	"name": "acf/g-cat-catalogues",
	"category": "customized-blocks",
	"icon": "book",
	"apiVersion": 2,
	"version": "1.0.0",
	"acf": {
		"mode": "preview",
		"renderTemplate": "catalogues.php"
	},
	"supports": {
		"align": false,
		"mode": false
	}
}